Analysis of Educational and Social Factors on Suicide Rates
…
associations
Number of membership associations per 10,000 people

mh_providers_cat
2 levels: below = less than 11.9 per 100,000 above = greater than 11.9

assoc_cat
4 levels: 0-5, 5-10, 10-15, and 15+ membership associations

##Tibble Print

chr_2021

## # A tibble: 376 x 10
##    fipscode state county    suicide_rate hs_completion some_college mh_providers
##    <chr>    <fct> <chr>            <dbl>         <dbl>        <dbl>        <dbl>
##  1 02016    AK    Aleutian~         NA            89.5         54.8         14.2
##  2 02020    AK    Anchorag~         22.2          93.9         72.0         48.7
##  3 02050    AK    Bethel C~         48.1          80.9         33.3        232. 
##  4 02068    AK    Denali B~         NA            98.5         71.5         NA  
##  5 02070    AK    Dillingh~         NA            86.3         50.2         79.3
##  6 02090    AK    Fairbank~         26.5          94.5         72.8         63.3
##  7 02100    AK    Haines B~         NA            97.5         72.0         23.7
##  8 02105    AK    Hoonah-A~         NA            93.7         43.9         27.9
##  9 02110    AK    Juneau B~         22.9          96.4         75.6         77.3
## 10 02122    AK    Kenai Pe~         25.7          92.7         59.9         24.7
## # ... with 366 more rows, and 3 more variables: associations <dbl>,
## #   mh_providers_cat <fct>, assoc_cat <fct>
…
